APRESENTAÇÃO 2 DE SOBREVIVÊNCIA
…
      APRESENTAÇÃO 2 DE SOBREVIVÊNCIA

            ANTÔNIO VICTOR

BANCO DE DADOS

## # A tibble: 1,000 × 9
##    idade sexo   trabalho moradia grana_poup grana_corr…¹ valor…² duracao para_…³
##    <dbl> <chr>     <dbl> <chr>        <dbl>        <dbl>   <dbl>   <dbl> <chr>  
##  1    67 male          2 own             NA            0    1169       6 radio/…
##  2    22 female        2 own              0            1    5951      48 radio/…
##  3    49 male          1 own              0           NA    2096      12 educat…
##  4    45 male          2 free             0            0    7882      42 furnit…
##  5    53 male          2 free             0            0    4870      24 car    
##  6    35 male          1 free            NA           NA    9055      36 educat…
##  7    53 male          2 own              3           NA    2835      24 furnit…
##  8    35 male          3 rent             0            1    6948      36 car    
##  9    61 male          1 own              2           NA    3059      12 radio/…
## 10    28 male          3 own              0            1    5234      30 car    
## # … with 990 more rows, and abbreviated variable names ¹​grana_corrent,
## #   ²​valor_cred, ³​para_que
…
